Introduction to Statistics: an integrated textbook and workbook using R - 7 Regression
…
The residuals are used to determine the regression line. The correct regression line will be the one that results in the smallest residuals overall. How do we measure the overall set of residuals? We can’t just calculate the average residual. Because the regression line should go through the middle of the data, the positive residuals will cancel out the negative residuals and the mean residual will just be zero. That’s not very useful.

Instead, what we do is square the residuals. That makes all of them positive. Then we add together all the squared residuals and that sum is the thing we try to minimize. Well, we don’t do that manually because it’s hard, so we let the computer do that for us. Because the regression line minimizes the sum of the squared residuals, the regression line is often called the least-squares line.

Recall earlier when we mentioned that there was one additional condition to check in order for linear regression to make sense. This condition is that there should not be any kind of pattern in the residuals.

We know that some of the points are going to lie above the line (positive residuals) and some of the points will lie below the line (negative residuals). What we need is for the spread of the residuals to be pretty balanced across the length of the regression line and for the residuals not to form any kind of curved pattern.

To check this condition, we’ll need to calculate the residuals first. To do so, we introduce a new function from the broom package. Whereas tidy serves up information about the intercept and the slope of the regression line, augment gives us extra information for each data point.

involact_race_aug <- augment(involact_race_lm)
involact_race_aug

# A tibble: 47 × 9
   .rownames involact  race .fitted .resid   .hat .sigma .cooksd .std.resid
   <chr>        <dbl> <dbl>   <dbl>  <dbl>  <dbl>  <dbl>   <dbl>      <dbl>
 1 60626          0    10     0.268 -0.268 0.0341  0.452 0.00651     -0.608
 2 60640          0.1  22.2   0.437 -0.337 0.0246  0.451 0.00731     -0.761
 3 60613          1.2  19.6   0.401  0.799 0.0261  0.437 0.0436       1.80 
 4 60657          0.5  17.3   0.369  0.131 0.0277  0.453 0.00124      0.295
 5 60614          0.7  24.5   0.469  0.231 0.0235  0.453 0.00326      0.520
 6 60610          0.3  54     0.879 -0.579 0.0287  0.445 0.0253      -1.31 
 7 60611          0     4.9   0.197 -0.197 0.0398  0.453 0.00417     -0.448
 8 60625          0     7.1   0.228 -0.228 0.0372  0.453 0.00517     -0.517
 9 60618          0.4   5.3   0.203  0.197 0.0393  0.453 0.00411      0.448
10 60647          1.1  21.5   0.428  0.672 0.0250  0.442 0.0295       1.52 
# ℹ 37 more rows
…
