Introduction to Statistics: an integrated textbook and workbook using R - 9 Introduction to randomization, Part 2
…
Please write up your answer here.

Exercise 2(c)

In your opinion, does the sample from this study truly represent the population you identified above?

Please write up your answer here.

9.4 Exploratory data analysis

Here is the data:

sex_discrimination

# A tibble: 48 × 2
   sex   decision
   <fct> <fct>   
 1 male  promoted
 2 male  promoted
 3 male  promoted
 4 male  promoted
 5 male  promoted
 6 male  promoted
 7 male  promoted
 8 male  promoted
 9 male  promoted
10 male  promoted
# ℹ 38 more rows
…
9.6 Randomization

The idea here is to keep the promotion status the same for each file, but randomly permute the sex labels. There will still be the same number of male and female files, but now they will be randomly matched with promoted files and not promoted files. Since this new grouping into “males” and “females” is completely random and arbitrary, we expect the likelihood of promotion to be equal for both groups.

A more precise way of saying this is that the expected difference under the assumption of independent variables is 0%. If there were truly no association, then the percentage of people promoted would be independent of sex. However, sampling variability means that we are not likely to see an exact difference of 0%. (Also, as we mentioned earlier, the odd number of promotions means the difference will never be exactly 0% anyway in this data.) The real question, then, is how different could the difference be from 0% and still be reasonably possible due to random chance.

Let’s perform a few random simulations. We’ll walk through the steps one line at a time. The first thing we do is permute the sex column:

set.seed(3141593)
sex_discrimination %>%
    mutate(sex = sample(sex))

# A tibble: 48 × 2
   sex    decision
   <fct>  <fct>   
 1 male   promoted
 2 female promoted
 3 male   promoted
 4 male   promoted
 5 female promoted
 6 female promoted
 7 female promoted
 8 female promoted
 9 female promoted
10 female promoted
# ℹ 38 more rows
…
Here is the code template, starting with setting the seed:

set.seed(3141593)
sims <- sex_discrimination %>%
    specify(decision ~ sex, success = "promoted") %>%
    hypothesize(null = "independence") %>%
    generate(reps = 1000, type = "permute") %>%
    calculate(stat = "diff in props", order = c("male", "female"))
sims

Response: decision (factor)
Explanatory: sex (factor)
Null Hypothesis: independence
# A tibble: 1,000 × 2
   replicate    stat
       <int>   <dbl>
 1         1 -0.125 
 2         2 -0.125 
 3         3 -0.0417
 4         4  0.0417
 5         5  0.125 
 6         6 -0.0417
 7         7 -0.0417
 8         8  0.125 
 9         9  0.125 
10        10  0.208 
# ℹ 990 more rows
…
9.9 By chance?

How likely is it that the observed difference (or a difference even more extreme) could have resulted from chance alone? Because sims contains simulated results after permuting, the values in the stat column assume that promotion is independent of sex. In order to assess how plausible our observed difference is under that assumption, we want to find out how many of the simulated values are at least as big, if not bigger, than the observed difference, 0.292.

Look at the randomized differences sorted in decreasing order:

sims %>%
    arrange(desc(stat))

Response: decision (factor)
Explanatory: sex (factor)
Null Hypothesis: independence
# A tibble: 1,000 × 2
   replicate  stat
       <int> <dbl>
 1       133 0.375
 2       181 0.375
 3       568 0.375
 4       619 0.375
 5        50 0.292
 6        68 0.292
 7        77 0.292
 8        93 0.292
 9       111 0.292
10       119 0.292
# ℹ 990 more rows
…
9.10 Your turn

In this section, you’ll explore another famous data set related to the topic of gender discrimination. (Also from the 1970s!)

The following code will download admissions data from the six largest graduate departments at the University of California, Berkeley in 1973. We’ve seen the read_csv command before, but we’ve added some extra stuff in there to make sure all the columns get imported as factor variables (rather than having to convert them ourselves later).

ucb_admit <- read_csv("https://vectorposse.github.io/intro_stats/data/ucb_admit.csv",
                      col_types = list(
                          Admit = col_factor(),
                          Gender = col_factor(),
                          Dept = col_factor()))

ucb_admit

# A tibble: 4,526 × 3
   Admit    Gender Dept 
   <fct>    <fct>  <fct>
 1 Admitted Male   A    
 2 Admitted Male   A    
 3 Admitted Male   A    
 4 Admitted Male   A    
 5 Admitted Male   A    
 6 Admitted Male   A    
 7 Admitted Male   A    
 8 Admitted Male   A    
 9 Admitted Male   A    
10 Admitted Male   A    
# ℹ 4,516 more rows
…
