Introduction to Statistics: an integrated textbook and workbook using R - 10 Hypothesis testing with randomization, Part 1
…
10.6.1 Use data documentation (help files, code books, Google, etc.) to determine as much as possible about the data provenance and structure.

You can look at the help file by typing ?sex_discrimination at the Console. (However, do not put that command here in a code chunk. The R Notebook has no way of displaying a help file when it’s processed.) You can also type that into the Help tab in the lower-right panel in RStudio.

The help file doesn’t say too much, but there is a “Source” at the bottom. We can do an internet search for “Rosen Jerdee Influence of sex role stereotypes on personnel decisions”. As many academics articles on the internet are, this one is pay-walled, so we can’t read it for free. If you go to school or work for an institution with a library, though, you may be able to access articles through your library services. Talk to a librarian if you’d like to access research articles. As long as you have the citation details, librarians can often track down articles, and many are already accessible through library databases.

In this case, we can read the abstract for free. This tells us that the data we have is only one part of a larger set of experiments done.

This is also the place to comment on any ethical concerns you may have. For example, how was the data collected? Did the researchers follow ethical guidelines in the treatment of their subjects, like obtaining consent? Without accessing the full article, it’s hard to know in this case. But do your best in each data analysis task you have to try to find out as much as possible about the data.

In this section, we’ll also print the data set and use glimpse to summarize the variables.

sex_discrimination

# A tibble: 48 × 2
   sex   decision
   <fct> <fct>   
 1 male  promoted
 2 male  promoted
 3 male  promoted
 4 male  promoted
 5 male  promoted
 6 male  promoted
 7 male  promoted
 8 male  promoted
 9 male  promoted
10 male  promoted
# ℹ 38 more rows
…
10.6.2 Prepare the data for analysis.

In this section, we do any tasks required to clean the data. This will often involve using mutate, either to convert other variable types to factors, or compute additional variables using existing columns. It may involve using filter to analyze only one part of the data we care about.

If there is missing data, this is the place to identify it and decide if you need to address it before starting your analysis. It’s always important to check for missing data. It’s not always necessary to address it now as many of the R functions we use will ignore rows with missing data.

The easiest way to detect missing data is to try deleting rows that are missing some data with drop_na and see if the number of rows changes:

sex_discrimination %>%
  drop_na()

# A tibble: 48 × 2
   sex   decision
   <fct> <fct>   
 1 male  promoted
 2 male  promoted
 3 male  promoted
 4 male  promoted
 5 male  promoted
 6 male  promoted
 7 male  promoted
 8 male  promoted
 9 male  promoted
10 male  promoted
# ℹ 38 more rows
…
When you get to the visualize step, leave the number of bins out. (Just type visualize() with empty parentheses.) If you determine that the default binning is not optimal, you can add back bins and experiment with the number. We know from the previous chapter that 9 bins is good here.

set.seed(9999)
decision_sex_test <- sex_discrimination %>%
    specify(decision ~ sex, success = "promoted") %>%
    hypothesize(null = "independence") %>%
    generate(reps = 1000, type = "permute") %>%
    calculate(stat = "diff in props", order = c("male", "female"))
decision_sex_test

Response: decision (factor)
Explanatory: sex (factor)
Null Hypothesis: independence
# A tibble: 1,000 × 2
   replicate    stat
       <int>   <dbl>
 1         1 -0.0417
 2         2  0.208 
 3         3  0.0417
 4         4 -0.125 
 5         5 -0.0417
 6         6 -0.208 
 7         7 -0.208 
 8         8  0.0417
 9         9 -0.292 
10        10  0.125 
# ℹ 990 more rows
…
