Introduction to Statistics: an integrated textbook and workbook using R - 11 Hypothesis testing with randomization, Part 2
…
11.8.3 Plot the null distribution.

Since this is the first step for which we need the simulated values, it will be convenient to run the simulation here. We’ll need to set the seed as well.

set.seed(42)
melanoma_test <- Melanoma %>%
    specify(response = sex_fct, success = "female") %>%
    hypothesize(null = "point", p = 0.5) %>%
    generate(reps = 1000, type = "draw") %>%
    calculate(stat = "prop")
melanoma_test

Response: sex_fct (factor)
Null Hypothesis: point
# A tibble: 1,000 × 2
   replicate  stat
   <fct>     <dbl>
 1 1         0.444
 2 2         0.585
 3 3         0.551
 4 4         0.502
 5 5         0.561
 6 6         0.493
 7 7         0.527
 8 8         0.488
 9 9         0.512
10 10        0.454
# ℹ 990 more rows
…
