Introduction to Statistics: an integrated textbook and workbook using R - 12 Confidence intervals
…
If we do this many, many times, we get a whole collection of sample proportions. The distribution of all those sample proportions, obtained with bootstrap samples (samples drawn with replacement), is called the bootstrap sampling distribution.

12.4 Computing a bootstrap sampling distribution

The infer package can compute bootstrap samples and, hence, produce a bootstrap sampling distribution. The code looks a whole like the code you already know for hypothesis testing:

private_boot <- hsb2 %>%
    specify(response = schtyp, success = "private") %>%
    generate(reps = 1000, type = "bootstrap") %>%
    calculate(stat = "prop")
private_boot

Response: schtyp (factor)
# A tibble: 1,000 × 2
   replicate  stat
       <int> <dbl>
 1         1 0.185
 2         2 0.185
 3         3 0.15 
 4         4 0.135
 5         5 0.145
 6         6 0.175
 7         7 0.15 
 8         8 0.195
 9         9 0.18 
10        10 0.185
# ℹ 990 more rows
…
10%

The sample size is 200, which is much less than 10% of the population of all U.S. high school seniors.

12.8.2 Calculate and graph the confidence interval.

vocational_boot <- hsb2 %>%
    specify(response = prog2, success = "vocational") %>%
    generate(reps = 1000, type = "bootstrap") %>%
    calculate(stat = "prop")
vocational_boot

Response: prog2 (factor)
# A tibble: 1,000 × 2
   replicate  stat
       <int> <dbl>
 1         1 0.335
 2         2 0.25 
 3         3 0.17 
 4         4 0.24 
 5         5 0.245
 6         6 0.245
 7         7 0.2  
 8         8 0.24 
 9         9 0.265
10        10 0.25 
# ℹ 990 more rows
…
