Introduction to Statistics: an integrated textbook and workbook using R - 15 Inference for one proportion
…
Start by typing ?heart_transplant at the Console or searching for heart_translplant in the Help tab to read the help file.

Exercise 1

Click on the link under “Source” in the help file. Why is this not helpful for determining the provenance of the data?

Now try to do an internet search to find the original research article from 1974. Why is this search process also not likely to help you determine the provenance of the data?

Please write up your answer here.

Now that we have learned everything we can reasonably learn about the data, we print it out and look at the variables.

heart_transplant

# A tibble: 103 × 8
      id acceptyear   age survived survtime prior transplant  wait
   <int>      <int> <int> <fct>       <int> <fct> <fct>      <int>
 1    15         68    53 dead            1 no    control       NA
 2    43         70    43 dead            2 no    control       NA
 3    61         71    52 dead            2 no    control       NA
 4    75         72    52 dead            2 no    control       NA
 5     6         68    54 dead            3 no    control       NA
 6    42         70    36 dead            3 no    control       NA
 7    54         71    47 dead            3 no    control       NA
 8    38         70    41 dead            5 no    treatment      5
 9    85         73    47 dead            5 no    control       NA
10     2         68    51 dead            6 no    control       NA
# ℹ 93 more rows
…
15.5.2 Prepare the data for analysis.

CAUTION: If you are copying and pasting from this example to use for another research question, the following code chunk is specific to this research question and not applicable in other contexts.

We need to use filter so we get only the patients who actually received the heart transplant.

# Do not copy and paste this code for future work
heart_transplant2 <- heart_transplant %>%
    filter(transplant == "treatment")
heart_transplant2

# A tibble: 69 × 8
      id acceptyear   age survived survtime prior transplant  wait
   <int>      <int> <int> <fct>       <int> <fct> <fct>      <int>
 1    38         70    41 dead            5 no    treatment      5
 2    95         73    40 dead           16 no    treatment      2
 3     3         68    54 dead           16 no    treatment      1
 4    74         72    29 dead           17 no    treatment      5
 5    20         69    55 dead           28 no    treatment      1
 6    70         72    52 dead           30 no    treatment      5
 7     4         68    40 dead           39 no    treatment     36
 8   100         74    35 alive          39 yes   treatment     38
 9    16         68    56 dead           43 no    treatment     20
10    45         71    36 dead           45 no    treatment      1
# ℹ 59 more rows
…
Commentary: In past chapters, we have used the generate verb to get many repetitions (usually 1000) of some kind of random process to simulate the sampling distribution model. In this chapter, we have used the verb assume instead to assume that the sampling distribution is a normal model. As long as the conditions hold, this is a reasonable assumption. This also means that we don’t have to use set.seed as there is no random process to reproduce.

Compare the graph above to what we would see if we simulated the sampling distribution. (Now we do need set.seed!)

set.seed(6789)
alive_test_draw <- heart_transplant2 %>%
    specify(response = survived, success = "alive") %>%
    hypothesize(null = "point", p = 0.5) %>%
    generate(reps = 1000, type = "draw") %>%
    calculate(stat = "prop")
alive_test_draw

Response: survived (factor)
Null Hypothesis: point
# A tibble: 1,000 × 2
   replicate  stat
   <fct>     <dbl>
 1 1         0.493
 2 2         0.406
 3 3         0.435
 4 4         0.580
 5 5         0.522
 6 6         0.507
 7 7         0.580
 8 8         0.435
 9 9         0.551
10 10        0.435
# ℹ 990 more rows
…
