Introduction to Statistics: an integrated textbook and workbook using R - 17 Chi-square goodness-of-fit test
…
set.seed(99999)
cyl_test_sim <- mtcars2 %>%
  specify(response = cyl_fct) %>%
  hypothesize(null = "point",
              p = c("4" = 0.38,
                    "6" = 0.38,
                    "8" = 0.24)) %>%
  generate(reps = 1000, type = "draw") %>%
  calculate(stat = "chisq")
cyl_test_sim

Response: cyl_fct (factor)
Null Hypothesis: point
# A tibble: 1,000 × 2
   replicate  stat
   <fct>     <dbl>
 1 1         1.58 
 2 2         3.63 
 3 3         3.63 
 4 4         0.669
 5 5         2.31 
 6 6         0.648
 7 7         4.13 
 8 8         7.08 
 9 9         0.648
10 10        0.669
# ℹ 990 more rows
…
