Introduction to Statistics: an integrated textbook and workbook using R - 20 Inference for paired data
…
Since we’re only interested in analyzing the one numerical variable d, this process is nothing more than a one-sample t test. Therefore, there is really nothing new in this chapter.

Let’s go through the rubric.

20.6 Exploratory data analysis

20.6.1 Use data documentation (help files, code books, Google, etc.) to determine as much as possible about the data provenance and structure.

You should type textbooks at the Console to read the help file. The data was collected by a person, David Diez. A quick Google search reveals that he is a statistician who graduated from UCLA. We presume he had access to accurate information about the prices of books at the UCLA bookstore and from Amazon.com at the time the data was collected.

Here is the data set:

textbooks

# A tibble: 73 × 7
   dept_abbr course  isbn           ucla_new amaz_new more   diff
   <fct>     <fct>   <fct>             <dbl>    <dbl> <fct> <dbl>
 1 Am Ind    " C170" 978-0803272620     27.7     28.0 Y     -0.28
 2 Anthro    "9"     978-0030119194     40.6     31.1 Y      9.45
 3 Anthro    "135T"  978-0300080643     31.7     32   Y     -0.32
 4 Anthro    "191HB" 978-0226206813     16       11.5 Y      4.48
 5 Art His   "M102K" 978-0892365999     19.0     14.2 Y      4.74
 6 Art His   "118E"  978-0394723693     15.0     10.2 Y      4.78
 7 Asia Am   "187B"  978-0822338437     24.7     20.1 Y      4.64
 8 Asia Am   "191E"  978-0816646135     19.5     16.7 N      2.84
 9 Ch Engr   "C125"  978-0195123401    124.     106.  N     17.6 
10 Chicano   "M145B" 978-0896086265     17       13.3 Y      3.74
# ℹ 63 more rows
…
The two paired variables are ucla_new and amaz_new.

20.6.2 Prepare the data for analysis.

Generally, we will need to create a new variable d that represents the difference between the two paired variables of interest. This uses the mutate command that adds an extra column to our data frame. The order of subtraction usually does not matter, but we will want to keep track of that order so that we can interpret our test statistic correctly. In the case of a one-sided test (which this is), it is especially important to keep track of the order of subtraction. Since we suspect the bookstore will charge more than Amazon, let’s subtract in that order. Our hunch is that it will be a positive number, on average.

textbooks_d <- textbooks %>%
    mutate(d = ucla_new - amaz_new)
textbooks_d

# A tibble: 73 × 8
   dept_abbr course  isbn           ucla_new amaz_new more   diff      d
   <fct>     <fct>   <fct>             <dbl>    <dbl> <fct> <dbl>  <dbl>
 1 Am Ind    " C170" 978-0803272620     27.7     28.0 Y     -0.28 -0.280
 2 Anthro    "9"     978-0030119194     40.6     31.1 Y      9.45  9.45 
 3 Anthro    "135T"  978-0300080643     31.7     32   Y     -0.32 -0.320
 4 Anthro    "191HB" 978-0226206813     16       11.5 Y      4.48  4.48 
 5 Art His   "M102K" 978-0892365999     19.0     14.2 Y      4.74  4.74 
 6 Art His   "118E"  978-0394723693     15.0     10.2 Y      4.78  4.78 
 7 Asia Am   "187B"  978-0822338437     24.7     20.1 Y      4.64  4.64 
 8 Asia Am   "191E"  978-0816646135     19.5     16.7 N      2.84  2.84 
 9 Ch Engr   "C125"  978-0195123401    124.     106.  N     17.6  17.6  
10 Chicano   "M145B" 978-0896086265     17       13.3 Y      3.74  3.74 
# ℹ 63 more rows
…
