Introduction to Statistics: an integrated textbook and workbook using R - 21 Inference for two independent means
…
The infer package will perform this random shuffling over and over again. Given the now arbitrary labels of “Nonsmoker” and “Smoker” (which are meaningless because each women was assigned to one of these labels randomly with no regard to her actual smoking status), infer will calculate the mean birth weights among the first group of women (labeled “Nonsmokers” but not really consisting of all nonsmokers) and the second group of women (labeled “Smokers” but not really consisting of all smokers). Finally infer will compute the difference between those two means. And it will do this process 1000 times.

set.seed(1729)
bwt_smoke_test <- birthwt2 %>%
  specify(response = bwt, explanatory = smoke_fct) %>%
  hypothesize(null = "independence") %>%
  generate(reps = 1000, type = "permute") %>%
  calculate(stat = "diff in means", order = c("Nonsmoker", "Smoker"))
bwt_smoke_test

Response: bwt (numeric)
Explanatory: smoke_fct (factor)
Null Hypothesis: independence
# A tibble: 1,000 × 2
   replicate   stat
       <int>  <dbl>
 1         1 -173. 
 2         2  -79.3
 3         3  -95.8
 4         4 -253. 
 5         5   31.3
 6         6 -229. 
 7         7   63.4
 8         8   13.8
 9         9   22.6
10        10 -118. 
# ℹ 990 more rows
…
