Introduction to Statistics: an integrated textbook and workbook using R - 22 ANOVA
…
We can simulate this using the infer package. Suppose that there were no difference in the mean BECK scores among the three groups. We can accomplish this by shuffling the IV labels, an idea we’ve seen several times before in this book. Permuting the IV values breaks any association that might have existed in the original data.

set.seed(420)
BECK_IV_test_sim <- uis2 %>%
  specify(response = BECK, explanatory = IV_fct) %>%
  hypothesize(null = "independence") %>%
  generate(reps = 1000, type = "permute") %>%
  calculate(stat = "F")
BECK_IV_test_sim

Response: BECK (numeric)
Explanatory: IV_fct (factor)
Null Hypothesis: independence
# A tibble: 1,000 × 2
   replicate  stat
       <int> <dbl>
 1         1 0.616
 2         2 2.36 
 3         3 1.38 
 4         4 2.64 
 5         5 0.333
 6         6 0.732
 7         7 1.33 
 8         8 0.261
 9         9 1.31 
10        10 0.616
# ℹ 990 more rows
…
